%YAML 1.1
%TAG !u! tag:unity3d.com,2011:
--- !u!1045 &1
EditorBuildSettings:
  m_ObjectHideFlags: 0
  serializedVersion: 2
  m_Scenes:
  - enabled: 0
    path: 
    guid: 00000000000000000000000000000000
  - enabled: 1
    path: Assets/Scenes/Main Menu.unity
    guid: 65b12741d1d23164299935151944f24c
  - enabled: 1
    path: Assets/Scenes/Level One.unity
    guid: cd9cb26a6600d8a47b30edcc3b00fb9e
  - enabled: 1
    path: Assets/Scenes/Game Over.unity
    guid: 0d8c91564c0c6cc458bd8be4806256f5
  m_configObjects: {}
